[{"reqType":"GET","url":"https://reqres.in/api/users?page=2","reqPayload":"","dataFile":"/Users/sarahkhalid/dd_api_testingFramework/utils/test_data.json","arrayIndex":"1","extractResponse":"first_name","updateResponse":"name","resStatusCode":"200","schemaToValidate":"{\n    \"page\": 2,\n    \"per_page\": 6,\n    \"total\": 12,\n    \"total_pages\": 2,\n    \"data\": [\n        {\n            \"id\": 7,\n            \"email\": \"michael.lawson@reqres.in\",\n            \"first_name\": \"Michael\",\n            \"last_name\": \"Lawson\",\n            \"avatar\": \"https://s3.amazonaws.com/uifaces/faces/twitter/follettkyle/128.jpg\"\n        },\n        {\n            \"id\": 8,\n            \"email\": \"lindsay.ferguson@reqres.in\",\n            \"first_name\": \"Lindsay\",\n            \"last_name\": \"Ferguson\",\n            \"avatar\": \"https://s3.amazonaws.com/uifaces/faces/twitter/araa3185/128.jpg\"\n        },\n        {\n            \"id\": 9,\n            \"email\": \"tobias.funke@reqres.in\",\n            \"first_name\": \"Tobias\",\n            \"last_name\": \"Funke\",\n            \"avatar\": \"https://s3.amazonaws.com/uifaces/faces/twitter/vivekprvr/128.jpg\"\n        },\n        {\n            \"id\": 10,\n            \"email\": \"byron.fields@reqres.in\",\n            \"first_name\": \"Byron\",\n            \"last_name\": \"Fields\",\n            \"avatar\": \"https://s3.amazonaws.com/uifaces/faces/twitter/russoedu/128.jpg\"\n        },\n        {\n            \"id\": 11,\n            \"email\": \"george.edwards@reqres.in\",\n            \"first_name\": \"George\",\n            \"last_name\": \"Edwards\",\n            \"avatar\": \"https://s3.amazonaws.com/uifaces/faces/twitter/mrmoiree/128.jpg\"\n        },\n        {\n            \"id\": 12,\n            \"email\": \"rachel.howell@reqres.in\",\n            \"first_name\": \"Rachel\",\n            \"last_name\": \"Howell\",\n            \"avatar\": \"https://s3.amazonaws.com/uifaces/faces/twitter/hebertialmeida/128.jpg\"\n        }\n    ]\n}"},{"reqType":"POST","url":"https://reqres.in/api/users","reqPayload":"","dataFile":"/Users/sarahkhalid/dd_api_testingFramework/utils/test_data.json","arrayIndex":"0","extractResponse":"name","updateResponse":"name","resStatusCode":"201","schemaToValidate":""},{"reqType":"POST","url":"https://reqres.in/api/users","reqPayload":"{\"name\":\"Hassaan\",\"job\":\"Automation Engineer\"}","dataFile":"/Users/sarahkhalid/dd_api_testingFramework/utils/test_data.json","arrayIndex":"0","extractResponse":"job","updateResponse":"job","resStatusCode":"201","schemaToValidate":"{\n    \"$schema\": \"http://json-schema.org/draft-07/schema\",\n    \"$id\": \"http://example.com/example.json\",\n    \"type\": \"object\",\n    \"title\": \"The Root Schema\",\n    \"description\": \"The root schema comprises the entire JSON document.\",\n    \"required\": [\n        \"name\",\n        \"job\",\n        \"id\",\n        \"createdAt\"\n    ],\n    \"properties\": {\n        \"name\": {\n            \"$id\": \"#/properties/name\",\n            \"type\": \"string\",\n            \"title\": \"The Name Schema\",\n            \"description\": \"An explanation about the purpose of this instance.\",\n            \"default\": \"\",\n            \"examples\": [\n                \"morpheus\"\n            ]\n        },\n        \"job\": {\n            \"$id\": \"#/properties/job\",\n            \"type\": \"string\",\n            \"title\": \"The Job Schema\",\n            \"description\": \"An explanation about the purpose of this instance.\",\n            \"default\": \"\",\n            \"examples\": [\n                \"leader\"\n            ]\n        },\n        \"id\": {\n            \"$id\": \"#/properties/id\",\n            \"type\": \"string\",\n            \"title\": \"The Id Schema\",\n            \"description\": \"An explanation about the purpose of this instance.\",\n            \"default\": \"\",\n            \"examples\": [\n                \"713\"\n            ]\n        },\n        \"createdAt\": {\n            \"$id\": \"#/properties/createdAt\",\n            \"type\": \"string\",\n            \"title\": \"The Createdat Schema\",\n            \"description\": \"An explanation about the purpose of this instance.\",\n            \"default\": \"\",\n            \"examples\": [\n                \"2020-03-08T20:50:36.170Z\"\n            ]\n        }\n    }\n}"},{"reqType":"PUT","url":"https://reqres.in/api/users/2","reqPayload":"","dataFile":"/Users/sarahkhalid/dd_api_testingFramework/utils/test_data.json","arrayIndex":"","extractResponse":"","updateResponse":"","resStatusCode":"200","schemaToValidate":""}]